{
  "openapi": "3.0.1",
  "info": {
    "title": "Demo APIs",
    "termsOfService": "",
    "contact": {
      "email": "arupdas271993@gmail.com"
    },
    "version": "1.0.0"
  },
  "servers": [
    {
      "url": "/api/v1"
    }
  ],
  "tags": [
    {
      "name": "Users"
    },
    {
      "name": "Images"
    },
    {
      "name": "Templates"
    }
  ],
  "paths": {
    "/user/signup": {
      "post": {
        "tags": [
          "Users"
        ],
        "summary": "User Signup",
        "description": "User Signup",
        "parameters": [
          {
            "$ref": "#/components/parameters/AcceptLanguage"
          }
        ],
        "requestBody": {
          "description": "An object defining our schema for this request",
          "content": {
            "application/json": {
              "schema": {
                "required": [
                  "email",
                  "firstName",
                  "lastName",
                  "phone",
                  "password"
                ],
                "type": "object",
                "properties": {
                  "firstName": {
                    "type": "string"
                  },
                  "lastName": {
                    "type": "string"
                  },
                  "email": {
                    "type": "string"
                  },
                  "phone": {
                    "type": "string"
                  },
                  "password": {
                    "type": "string"
                  }
                }
              }
            }
          },
          "required": true
        },
        "responses": {
          "204": {
            "description": "Success",
            "content": {
              "application/json": {
                "schema": {
                  "$ref": "#/components/schemas/successResponseObject"
                }
              }
            }
          },
          "400": {
            "description": "Bad Request",
            "content": {
              "application/json": {
                "schema": {
                  "$ref": "#/components/schemas/badRequestResponse"
                }
              }
            }
          },
          "403": {
            "description": "Forbidden",
            "content": {
              "application/json": {
                "schema": {
                  "$ref": "#/components/schemas/forbiddenResponse"
                }
              }
            }
          },
          "500": {
            "description": "Server Error",
            "content": {
              "application/json": {
                "schema": {
                  "$ref": "#/components/schemas/serverErrorResponse"
                }
              }
            }
          }
        },
        "security": [
          {
            "ApiKeyAuth": []
          }
        ],
        "x-codegen-request-body-name": "body"
      }
    },
    "/user/resend-otp": {
      "post": {
        "tags": [
          "Users"
        ],
        "summary": "Resend One time password (OTP)",
        "description": "Resend One time password (OTP) to user email",
        "parameters": [
          {
            "$ref": "#/components/parameters/AcceptLanguage"
          }
        ],
        "requestBody": {
          "description": "An object defining our schema for this request",
          "content": {
            "application/json": {
              "schema": {
                "required": [
                  "email"
                ],
                "type": "object",
                "properties": {
                  "email": {
                    "type": "string"
                  }
                }
              }
            }
          },
          "required": true
        },
        "responses": {
          "200": {
            "description": "Success",
            "content": {
              "application/json": {
                "schema": {
                  "$ref": "#/components/schemas/successResponseObject"
                }
              }
            }
          },
          "400": {
            "description": "Bad Request",
            "content": {
              "application/json": {
                "schema": {
                  "$ref": "#/components/schemas/badRequestResponse"
                }
              }
            }
          },
          "403": {
            "description": "Forbidden",
            "content": {
              "application/json": {
                "schema": {
                  "$ref": "#/components/schemas/forbiddenResponse"
                }
              }
            }
          },
          "500": {
            "description": "Server Error",
            "content": {
              "application/json": {
                "schema": {
                  "$ref": "#/components/schemas/serverErrorResponse"
                }
              }
            }
          }
        },
        "security": [
          {
            "ApiKeyAuth": []
          }
        ],
        "x-codegen-request-body-name": "body"
      }
    },
    "/user/login-with-otp": {
      "post": {
        "tags": [
          "Users"
        ],
        "summary": "User Login with otp",
        "description": "User Login with otp after signup",
        "parameters": [
          {
            "$ref": "#/components/parameters/AcceptLanguage"
          }
        ],
        "requestBody": {
          "description": "An object defining our schema for this request",
          "content": {
            "application/json": {
              "schema": {
                "required": [
                  "email",
                  "otp"
                ],
                "type": "object",
                "properties": {
                  "email": {
                    "type": "string"
                  },
                  "otp": {
                    "type": "number"
                  }
                }
              }
            }
          },
          "required": true
        },
        "responses": {
          "200": {
            "description": "Success",
            "content": {
              "application/json": {
                "schema": {
                  "$ref": "#/components/schemas/successResponseObject"
                }
              }
            }
          },
          "400": {
            "description": "Bad Request",
            "content": {
              "application/json": {
                "schema": {
                  "$ref": "#/components/schemas/badRequestResponse"
                }
              }
            }
          },
          "403": {
            "description": "Forbidden",
            "content": {
              "application/json": {
                "schema": {
                  "$ref": "#/components/schemas/forbiddenResponse"
                }
              }
            }
          },
          "500": {
            "description": "Server Error",
            "content": {
              "application/json": {
                "schema": {
                  "$ref": "#/components/schemas/serverErrorResponse"
                }
              }
            }
          }
        },
        "security": [
          {
            "ApiKeyAuth": []
          }
        ],
        "x-codegen-request-body-name": "body"
      }
    },
    "/user/login": {
      "post": {
        "tags": [
          "Users"
        ],
        "summary": "User Login",
        "description": "User Login",
        "parameters": [
          {
            "$ref": "#/components/parameters/AcceptLanguage"
          }
        ],
        "requestBody": {
          "description": "An object defining our schema for this request",
          "content": {
            "application/json": {
              "schema": {
                "required": [
                  "emailOrPhone",
                  "password"
                ],
                "type": "object",
                "properties": {
                  "emailOrPhone": {
                    "type": "string"
                  },
                  "password": {
                    "type": "string"
                  }
                }
              }
            }
          },
          "required": true
        },
        "responses": {
          "200": {
            "description": "Success",
            "content": {
              "application/json": {
                "schema": {
                  "$ref": "#/components/schemas/successResponseObject"
                }
              }
            }
          },
          "400": {
            "description": "Bad Request",
            "content": {
              "application/json": {
                "schema": {
                  "$ref": "#/components/schemas/badRequestResponse"
                }
              }
            }
          },
          "403": {
            "description": "Forbidden",
            "content": {
              "application/json": {
                "schema": {
                  "$ref": "#/components/schemas/forbiddenResponse"
                }
              }
            }
          },
          "500": {
            "description": "Server Error",
            "content": {
              "application/json": {
                "schema": {
                  "$ref": "#/components/schemas/serverErrorResponse"
                }
              }
            }
          }
        },
        "security": [
          {
            "ApiKeyAuth": []
          }
        ],
        "x-codegen-request-body-name": "body"
      }
    },
    "/user/change-password": {
      "post": {
        "tags": [
          "Users"
        ],
        "summary": "User change password",
        "description": "User change password",
        "parameters": [
          {
            "$ref": "#/components/parameters/AcceptLanguage"
          }
        ],
        "requestBody": {
          "description": "An object defining our schema for this request",
          "content": {
            "application/json": {
              "schema": {
                "required": [
                  "password",
                  "newPassword"
                ],
                "type": "object",
                "properties": {
                  "password": {
                    "type": "string"
                  },
                  "newPassword": {
                    "type": "string"
                  }
                }
              }
            }
          },
          "required": true
        },
        "responses": {
          "204": {
            "description": "Success",
            "content": {
              "application/json": {
                "schema": {
                  "$ref": "#/components/schemas/successResponseObject"
                }
              }
            }
          },
          "400": {
            "description": "Bad Request",
            "content": {
              "application/json": {
                "schema": {
                  "$ref": "#/components/schemas/badRequestResponse"
                }
              }
            }
          },
          "403": {
            "description": "Forbidden",
            "content": {
              "application/json": {
                "schema": {
                  "$ref": "#/components/schemas/forbiddenResponse"
                }
              }
            }
          },
          "500": {
            "description": "Server Error",
            "content": {
              "application/json": {
                "schema": {
                  "$ref": "#/components/schemas/serverErrorResponse"
                }
              }
            }
          }
        },
        "security": [
          {
            "ApiKeyAuth": []
          }
        ],
        "x-codegen-request-body-name": "body"
      }
    },
    "/user/forgot-password": {
      "post": {
        "tags": [
          "Users"
        ],
        "summary": "User forgot password",
        "description": "User forgot password",
        "parameters": [
          {
            "$ref": "#/components/parameters/AcceptLanguage"
          }
        ],
        "requestBody": {
          "description": "An object defining our schema for this request",
          "content": {
            "application/json": {
              "schema": {
                "required": [
                  "emailOrPhone"
                ],
                "type": "object",
                "properties": {
                  "emailOrPhone": {
                    "type": "string"
                  }
                }
              }
            }
          },
          "required": true
        },
        "responses": {
          "204": {
            "description": "Success",
            "content": {
              "application/json": {
                "schema": {
                  "$ref": "#/components/schemas/successResponseObject"
                }
              }
            }
          },
          "400": {
            "description": "Bad Request",
            "content": {
              "application/json": {
                "schema": {
                  "$ref": "#/components/schemas/badRequestResponse"
                }
              }
            }
          },
          "403": {
            "description": "Forbidden",
            "content": {
              "application/json": {
                "schema": {
                  "$ref": "#/components/schemas/forbiddenResponse"
                }
              }
            }
          },
          "500": {
            "description": "Server Error",
            "content": {
              "application/json": {
                "schema": {
                  "$ref": "#/components/schemas/serverErrorResponse"
                }
              }
            }
          }
        },
        "security": [
          {
            "ApiKeyAuth": []
          }
        ],
        "x-codegen-request-body-name": "body"
      }
    },
    "/user/reset-password": {
      "post": {
        "tags": [
          "Users"
        ],
        "summary": "User reset password",
        "description": "User reset password",
        "parameters": [
          {
            "$ref": "#/components/parameters/AcceptLanguage"
          }
        ],
        "requestBody": {
          "description": "An object defining our schema for this request",
          "content": {
            "application/json": {
              "schema": {
                "required": [
                  "emailOrPhone",
                  "otp",
                  "password"
                ],
                "type": "object",
                "properties": {
                  "emailOrPhone": {
                    "type": "string"
                  },
                  "otp": {
                    "type": "number"
                  },
                  "password": {
                    "type": "string"
                  }
                }
              }
            }
          },
          "required": true
        },
        "responses": {
          "204": {
            "description": "Success",
            "content": {
              "application/json": {
                "schema": {
                  "$ref": "#/components/schemas/successResponseObject"
                }
              }
            }
          },
          "400": {
            "description": "Bad Request",
            "content": {
              "application/json": {
                "schema": {
                  "$ref": "#/components/schemas/badRequestResponse"
                }
              }
            }
          },
          "403": {
            "description": "Forbidden",
            "content": {
              "application/json": {
                "schema": {
                  "$ref": "#/components/schemas/forbiddenResponse"
                }
              }
            }
          },
          "500": {
            "description": "Server Error",
            "content": {
              "application/json": {
                "schema": {
                  "$ref": "#/components/schemas/serverErrorResponse"
                }
              }
            }
          }
        },
        "security": [
          {
            "ApiKeyAuth": []
          }
        ],
        "x-codegen-request-body-name": "body"
      }
    },
    "/user/profile-image": {
      "post": {
        "tags": [
          "Users"
        ],
        "summary": "upload users profile image",
        "description": "Upload users profile image",
        "parameters": [
          {
            "$ref": "#/components/parameters/AcceptLanguage"
          }
        ],
        "requestBody": {
          "description": "An object defining our schema for this request",
          "content": {
            "multipart/form-data": {
              "schema": {
                "required": [
                  "type",
                  "images"
                ],
                "type": "object",
                "properties": {
                  "type": {
                    "type": "string"
                  },
                  "images": {
                    "type": "file"
                  }
                }
              }
            }
          },
          "required": true
        },
        "responses": {
          "204": {
            "description": "Success",
            "content": {
              "application/json": {
                "schema": {
                  "$ref": "#/components/schemas/successResponseObject"
                }
              }
            }
          },
          "400": {
            "description": "Bad Request",
            "content": {
              "application/json": {
                "schema": {
                  "$ref": "#/components/schemas/badRequestResponse"
                }
              }
            }
          },
          "403": {
            "description": "Forbidden",
            "content": {
              "application/json": {
                "schema": {
                  "$ref": "#/components/schemas/forbiddenResponse"
                }
              }
            }
          },
          "500": {
            "description": "Server Error",
            "content": {
              "application/json": {
                "schema": {
                  "$ref": "#/components/schemas/serverErrorResponse"
                }
              }
            }
          }
        },
        "security": [
          {
            "userAccessToken": [],
            "ApiKeyAuth": []
          }
        ]
      }
    },
    "/user/me": {
      "get": {
        "tags": [
          "Users"
        ],
        "summary": "Get User Details",
        "description": "User Login",
        "parameters": [
          {
            "$ref": "#/components/parameters/AcceptLanguage"
          }
        ],
        "responses": {
          "200": {
            "description": "Success",
            "content": {
              "application/json": {
                "schema": {
                  "$ref": "#/components/schemas/successResponseObject"
                }
              }
            }
          },
          "400": {
            "description": "Bad Request",
            "content": {
              "application/json": {
                "schema": {
                  "$ref": "#/components/schemas/badRequestResponse"
                }
              }
            }
          },
          "403": {
            "description": "Forbidden",
            "content": {
              "application/json": {
                "schema": {
                  "$ref": "#/components/schemas/forbiddenResponse"
                }
              }
            }
          },
          "500": {
            "description": "Server Error",
            "content": {
              "application/json": {
                "schema": {
                  "$ref": "#/components/schemas/serverErrorResponse"
                }
              }
            }
          }
        },
        "security": [
          {
            "userAccessToken": [],
            "ApiKeyAuth": []
          }
        ]
      }
    },
    "/user/token": {
      "get": {
        "tags": [
          "Users"
        ],
        "summary": "Get New Token",
        "description": "Get New Token",
        "parameters": [
          {
            "$ref": "#/components/parameters/AcceptLanguage"
          }
        ],
        "responses": {
          "200": {
            "description": "Success",
            "content": {
              "application/json": {
                "schema": {
                  "$ref": "#/components/schemas/successResponseObject"
                }
              }
            }
          },
          "400": {
            "description": "Bad Request",
            "content": {
              "application/json": {
                "schema": {
                  "$ref": "#/components/schemas/badRequestResponse"
                }
              }
            }
          },
          "403": {
            "description": "Forbidden",
            "content": {
              "application/json": {
                "schema": {
                  "$ref": "#/components/schemas/forbiddenResponse"
                }
              }
            }
          },
          "500": {
            "description": "Server Error",
            "content": {
              "application/json": {
                "schema": {
                  "$ref": "#/components/schemas/serverErrorResponse"
                }
              }
            }
          }
        },
        "security": [
          {
            "userRefreshToken": [],
            "ApiKeyAuth": []
          }
        ]
      }
    },
    "/image/upload-image": {
      "post": {
        "tags": [
          "Images"
        ],
        "summary": "upload an image",
        "description": "Upload a new movie image",
        "parameters": [
          {
            "$ref": "#/components/parameters/AcceptLanguage"
          }
        ],
        "requestBody": {
          "description": "An object defining our schema for this request",
          "content": {
            "multipart/form-data": {
              "schema": {
                "required": [
                  "images",
                  "type",
                  "description"
                ],
                "type": "object",
                "properties": {
                  "images": {
                    "type": "file"
                  },
                  "type": {
                    "type": "string"
                  },
                  "description": {
                    "type": "string"
                  }
                }
              }
            }
          },
          "required": true
        },
        "responses": {
          "201": {
            "description": "Created",
            "content": {
              "application/json": {
                "schema": {
                  "$ref": "#/components/schemas/successResponseObject"
                }
              }
            }
          },
          "400": {
            "description": "Bad Request",
            "content": {
              "application/json": {
                "schema": {
                  "$ref": "#/components/schemas/badRequestResponse"
                }
              }
            }
          },
          "403": {
            "description": "Forbidden",
            "content": {
              "application/json": {
                "schema": {
                  "$ref": "#/components/schemas/forbiddenResponse"
                }
              }
            }
          },
          "500": {
            "description": "Server Error",
            "content": {
              "application/json": {
                "schema": {
                  "$ref": "#/components/schemas/serverErrorResponse"
                }
              }
            }
          }
        },
        "security": [
          {
            "ApiKeyAuth": []
          }
        ]
      }
    },
    "/template/create-template": {
      "post": {
        "tags": [
          "Templates"
        ],
        "summary": "create template",
        "description": "create a new email template",
        "parameters": [
          {
            "$ref": "#/components/parameters/AcceptLanguage"
          }
        ],
        "requestBody": {
          "description": "An object defining our schema for this request",
          "content": {
            "application/json": {
              "schema": {
                "required": [
                  "name",
                  "subject",
                  "body"
                ],
                "type": "object",
                "properties": {
                  "name": {
                    "type": "string"
                  },
                  "subject": {
                    "type": "string"
                  },
                  "body": {
                    "type": "string"
                  }
                }
              }
            }
          },
          "required": true
        },
        "responses": {
          "201": {
            "description": "Created",
            "content": {
              "application/json": {
                "schema": {
                  "$ref": "#/components/schemas/successResponseObject"
                }
              }
            }
          },
          "400": {
            "description": "Bad Request",
            "content": {
              "application/json": {
                "schema": {
                  "$ref": "#/components/schemas/badRequestResponse"
                }
              }
            }
          },
          "403": {
            "description": "Forbidden",
            "content": {
              "application/json": {
                "schema": {
                  "$ref": "#/components/schemas/forbiddenResponse"
                }
              }
            }
          },
          "500": {
            "description": "Server Error",
            "content": {
              "application/json": {
                "schema": {
                  "$ref": "#/components/schemas/serverErrorResponse"
                }
              }
            }
          }
        },
        "security": [
          {
            "ApiKeyAuth": []
          }
        ],
        "x-codegen-request-body-name": "body"
      }
    }
  },
  "components": {
    "schemas": {
      "serverErrorResponse": {
        "title": "Server Error Response",
        "type": "object",
        "properties": {
          "status": {
            "type": "integer"
          },
          "message": {
            "type": "string"
          },
          "err": {
            "type": "string"
          }
        },
        "example": {
          "status": 500,
          "message": "Something Went Wrong",
          "err": "Error"
        }
      },
      "badRequestResponse": {
        "title": "Bad Request Response",
        "type": "object",
        "properties": {
          "status": {
            "type": "integer"
          },
          "message": {
            "type": "string"
          },
          "validationErrors": {
            "type": "string"
          }
        },
        "example": {
          "status": 400,
          "message": "Something Went Wrong",
          "validationErrors": "Error"
        }
      },
      "forbiddenResponse": {
        "title": "Forbidden Response",
        "type": "object",
        "properties": {
          "status": {
            "type": "integer"
          },
          "message": {
            "type": "string"
          }
        },
        "example": {
          "status": 403,
          "message": "Forbidden"
        }
      },
      "noDataResponseObject": {
        "title": "No Data Object Response",
        "type": "object",
        "properties": {
          "status": {
            "type": "integer"
          },
          "message": {
            "type": "string"
          },
          "data": {
            "type": "object",
            "properties": {}
          }
        },
        "example": {
          "status": 204,
          "message": "No Data Found",
          "data": {}
        }
      },
      "createdResponse": {
        "title": "Created Response",
        "type": "object",
        "properties": {
          "status": {
            "type": "integer"
          },
          "message": {
            "type": "string"
          },
          "data": {
            "type": "object",
            "properties": {}
          }
        },
        "example": {
          "status": 201,
          "message": "Created",
          "data": {}
        }
      },
      "successResponseObject": {
        "title": "Success Response",
        "type": "object",
        "properties": {
          "status": {
            "type": "integer"
          },
          "message": {
            "type": "string"
          },
          "data": {
            "type": "object",
            "properties": {}
          }
        },
        "example": {
          "status": 200,
          "message": "Successful",
          "data": {}
        }
      }
    },
    "parameters": {
      "AcceptLanguage": {
        "name": "accept-language",
        "in": "header",
        "description": "Incase we want to send current language along our request",
        "schema": {
          "type": "string",
          "default": "en"
        }
      }
    },
    "securitySchemes": {
      "ApiKeyAuth": {
        "type": "apiKey",
        "in": "header",
        "name": "x-api-key"
      },
      "userAccessToken": {
        "type": "http",
        "scheme": "bearer",
        "bearerFormat": "JWT"
      },
      "userRefreshToken": {
        "type": "http",
        "scheme": "bearer",
        "bearerFormat": "JWT"
      }
    }
  }
}